%YAML 1.1
%TAG !u! tag:unity3d.com,2011:
--- !u!1001 &100100000
Prefab:
  m_ObjectHideFlags: 1
  serializedVersion: 2
  m_Modification:
    m_TransformParent: {fileID: 0}
    m_Modifications: []
    m_RemovedComponents: []
  m_SourcePrefab: {fileID: 0}
  m_RootGameObject: {fileID: 1369330972582796}
  m_IsPrefabAsset: 1
--- !u!1 &1369330972582796
GameObject:
  m_ObjectHideFlags: 0
  m_CorrespondingSourceObject: {fileID: 0}
  m_PrefabInternal: {fileID: 100100000}
  serializedVersion: 6
  m_Component:
  - component: {fileID: 4030486777637602}
  - component: {fileID: 114268735616838512}
  m_Layer: 0
  m_Name: BoardManager
  m_TagString: Untagged
  m_Icon: {fileID: 0}
  m_NavMeshLayer: 0
  m_StaticEditorFlags: 0
  m_IsActive: 1
--- !u!4 &4030486777637602
Transform:
  m_ObjectHideFlags: 1
  m_CorrespondingSourceObject: {fileID: 0}
  m_PrefabInternal: {fileID: 100100000}
  m_GameObject: {fileID: 1369330972582796}
  m_LocalRotation: {x: 0, y: 0, z: 0, w: 1}
  m_LocalPosition: {x: 0, y: 0, z: 0}
  m_LocalScale: {x: 1, y: 1, z: 1}
  m_Children: []
  m_Father: {fileID: 0}
  m_RootOrder: 0
  m_LocalEulerAnglesHint: {x: 0, y: 0, z: 0}
--- !u!114 &114268735616838512
MonoBehaviour:
  m_ObjectHideFlags: 1
  m_CorrespondingSourceObject: {fileID: 0}
  m_PrefabInternal: {fileID: 100100000}
  m_GameObject: {fileID: 1369330972582796}
  m_Enabled: 1
  m_EditorHideFlags: 0
  m_Script: {fileID: 11500000, guid: 5f8bc35a6be6c9f4294506613612e533, type: 3}
  m_Name: 
  m_EditorClassIdentifier: 
  numColumns: 10
  numRows: 10
  tilePrefab: {fileID: 1219674047017492, guid: 0a5fd9883b241e64ab22f1714797517a, type: 2}
  playerPrefab: {fileID: 1216649629846094, guid: b4dbcb4d6dbd7eb43bbfa29ce1125b07,
    type: 2}
  zombiePrefab: {fileID: 1853456618228868, guid: aa5a9b7934c54a34b925cecd5415d006,
    type: 2}
  archerPrefab: {fileID: 1877456124035606, guid: 79f87705e01eb3a42ae1349ad7d9fdab,
    type: 2}
